lesson_1/tasks/01_sum/out/sim.vcd
$date
	Sat May  4 16:22:24 2024
$end
$version
	QuestaSim Version 10.7c
$end
$timescale
	100ps
$end

$scope module testbench $end
$var reg 32 ! A [31:0] $end
$var reg 32 " B [31:0] $end
$var reg 32 # C [31:0] $end
$var event 1 $ gen_done $end
$upscope $end
$enddefinitions $end
#0
$dumpvars
b11111111111111111111111111111111 !
b11111111111111111111111111111111 "
b11111111111111111111111111111110 #
1$
$end
#10
b11111111111111111111111111111 !
b11111111111111111111111111111 "
b111111111111111111111111111110 #
#20
b10011111110111001110 !
b10111001001111011010 "
b101011001000110101000 #
#30
b100101011001100110011111001010 !
b100110010101111110011010011000 "
b1001011101111100100111001100010 #
#40
b1011000010101010010000000111111 !
b1011110011000011111011001011010 "
b10110110101101110001011010011001 #
#50
b1100011100100100100010110010110 !
b1100111110110010111101010000011 "
b11001011011010111100000000011001 #
#60
b10001110010101001011101011011100 !
b10001011000011010010110111110110 "
b11001011000011110100011010010 #
#70
b10111010001100100100100011001100 !
b10110011100011111101000010100110 "
b1101101110000100001100101110010 #
#80
b11011000100111101111111110011111 !
b100010010101101010111101000 "
1$
b11011100111010011101010110000111 #
