lesson_1/tasks/02_truth_table/out/sim.vcd
$date
	Tue May  7 20:33:25 2024
$end
$version
	QuestaSim Version 10.7c
$end
$timescale
	100ps
$end

$scope module testbench $end
$var reg 1 ! a $end
$var reg 1 " b $end
$var reg 1 # c $end
$var reg 1 $ r $end
$var event 1 % ev $end
$var reg 1 & tb_r $end
$upscope $end
$enddefinitions $end
#0
$dumpvars
0!
0"
0#
0$
0&
1%
$end
#10
1%
1%
#100
1!
1&
1#
0!
1$
#110
1%
1%
#200
1"
0#
#210
1%
1%
#300
1!
0&
1#
0!
#310
1%
1%
#400
0"
1&
0#
1!
#410
1%
1%
#500
1#
#510
1%
1%
#600
0!
1"
0&
0#
1!
0$
#610
1%
1%
#700
1#
1$
#710
1%
1%
